{
  "service_name" : "ThermoMultidrop",
  "service_description": "SiLA2 service for Thermo Multidrop 8 channel dispenser",
  "authors"      : "unitelabs, mark doerr",
  "creation_date" : "20191104",
  "version" : "0.1.1",
  "vendor_url" : "lara.uni-greifswald.de",
  "SiLA_standard_feature_list" : ["SiLAService"],
  "SiLA_feature_list" : ["CancelController", "PauseController"],
  "communication_port" : "50051",
  "IP_address" : "127.0.0.1",
  "hostname" : "localhost"
}
